/home/saulo-avante/Documentos/Avante/A10API/a10api/src/main/java/br/com/avanteweb/a10/models/utils/ItemUtils.java
/home/saulo-avante/Documentos/Avante/A10API/a10api/src/main/java/br/com/avanteweb/a10/exceptions/controllers/ResourceExceptionHandler.java
/home/saulo-avante/Documentos/Avante/A10API/a10api/src/main/java/br/com/avanteweb/a10/entities/UsuarioCliente.java
/home/saulo-avante/Documentos/Avante/A10API/a10api/src/main/java/br/com/avanteweb/a10/retorna/endpoints/RetornaClienteEndPoint.java
/home/saulo-avante/Documentos/Avante/A10API/a10api/src/main/java/br/com/avanteweb/a10/services/implementations/UsuarioServiceImplementation.java
/home/saulo-avante/Documentos/Avante/A10API/a10api/src/main/java/br/com/avanteweb/a10/services/implementations/ContratoServiceImplementation.java
/home/saulo-avante/Documentos/Avante/A10API/a10api/src/main/java/br/com/avanteweb/a10/exception/services/ErroService.java
/home/saulo-avante/Documentos/Avante/A10API/a10api/src/main/java/br/com/avanteweb/a10/controllers/NewContratoController.java
/home/saulo-avante/Documentos/Avante/A10API/a10api/src/main/java/br/com/avanteweb/a10/exception/services/ObjectNotFoundException.java
/home/saulo-avante/Documentos/Avante/A10API/a10api/src/main/java/br/com/avanteweb/a10/models/gfsis/GrupoModelGfsis.java
/home/saulo-avante/Documentos/Avante/A10API/a10api/src/main/java/br/com/avanteweb/a10/models/gfsis/DistribuidorModelGfsis.java
/home/saulo-avante/Documentos/Avante/A10API/a10api/src/main/java/br/com/avanteweb/a10/services/implementations/ClienteServiceImplementation.java
/home/saulo-avante/Documentos/Avante/A10API/a10api/src/main/java/br/com/avanteweb/a10/models/gfsis/ProdutoModelGfsis.java
/home/saulo-avante/Documentos/Avante/A10API/a10api/src/main/java/br/com/avanteweb/a10/controllers/SchemaCadEmpresaLogin.java
/home/saulo-avante/Documentos/Avante/A10API/a10api/src/main/java/br/com/avanteweb/a10/entities/Cliente.java
/home/saulo-avante/Documentos/Avante/A10API/a10api/src/main/java/br/com/avanteweb/a10/exceptions/controllers/ValidationError.java
/home/saulo-avante/Documentos/Avante/A10API/a10api/src/main/java/br/com/avanteweb/a10/enums/GrupoEnum.java
/home/saulo-avante/Documentos/Avante/A10API/a10api/src/main/java/br/com/avanteweb/a10/models/gfsis/EnderecoModelGfsis.java
/home/saulo-avante/Documentos/Avante/A10API/a10api/src/main/java/br/com/avanteweb/a10/models/gfsis/ClienteModelGfsis.java
/home/saulo-avante/Documentos/Avante/A10API/a10api/src/main/java/br/com/avanteweb/a10/controllers/DataBase.java
/home/saulo-avante/Documentos/Avante/A10API/a10api/src/main/java/br/com/avanteweb/a10/retorna/endpoints/RetornaItensEndPoint.java
/home/saulo-avante/Documentos/Avante/A10API/a10api/src/main/java/br/com/avanteweb/a10/services/UsuarioClienteService.java
/home/saulo-avante/Documentos/Avante/A10API/a10api/src/main/java/br/com/avanteweb/a10/retorna/endpoints/RetornaUsuarioClienteEndPoint.java
/home/saulo-avante/Documentos/Avante/A10API/a10api/src/main/java/br/com/avanteweb/a10/repositories/UsuarioClienteRepository.java
/home/saulo-avante/Documentos/Avante/A10API/a10api/src/main/java/br/com/avanteweb/a10/A10apiV2Application.java
/home/saulo-avante/Documentos/Avante/A10API/a10api/src/main/java/br/com/avanteweb/a10/services/ContratoService.java
/home/saulo-avante/Documentos/Avante/A10API/a10api/src/main/java/br/com/avanteweb/a10/exception/services/FileException.java
/home/saulo-avante/Documentos/Avante/A10API/a10api/src/main/java/br/com/avanteweb/a10/exception/services/AuthorizationException.java
/home/saulo-avante/Documentos/Avante/A10API/a10api/src/main/java/br/com/avanteweb/a10/models/gfsis/ItensModelGfsis.java
/home/saulo-avante/Documentos/Avante/A10API/a10api/src/main/java/br/com/avanteweb/a10/models/gfsis/ContratoModelGfsis.java
/home/saulo-avante/Documentos/Avante/A10API/a10api/src/main/java/br/com/avanteweb/a10/controllers/SchemaController.java
/home/saulo-avante/Documentos/Avante/A10API/a10api/src/main/java/br/com/avanteweb/a10/exceptions/controllers/StandardError.java
/home/saulo-avante/Documentos/Avante/A10API/a10api/src/main/java/br/com/avanteweb/a10/utils/HashMaker.java
/home/saulo-avante/Documentos/Avante/A10API/a10api/src/main/java/br/com/avanteweb/a10/models/utils/ClienteUtils.java
/home/saulo-avante/Documentos/Avante/A10API/a10api/src/main/java/br/com/avanteweb/a10/services/UsuarioService.java
/home/saulo-avante/Documentos/Avante/A10API/a10api/src/main/java/br/com/avanteweb/a10/models/utils/VerificacaoCampos.java
/home/saulo-avante/Documentos/Avante/A10API/a10api/src/main/java/br/com/avanteweb/a10/entities/Usuario.java
/home/saulo-avante/Documentos/Avante/A10API/a10api/src/main/java/br/com/avanteweb/a10/services/implementations/UsuarioClienteServiceImplementation.java
/home/saulo-avante/Documentos/Avante/A10API/a10api/src/main/java/br/com/avanteweb/a10/exceptions/controllers/FieldMessage.java
/home/saulo-avante/Documentos/Avante/A10API/a10api/src/main/java/br/com/avanteweb/a10/retorna/endpoints/RetornaUsuarioEndPoint.java
/home/saulo-avante/Documentos/Avante/A10API/a10api/src/main/java/br/com/avanteweb/a10/retorna/endpoints/RetornaContratoEndPoint.java
/home/saulo-avante/Documentos/Avante/A10API/a10api/src/main/java/br/com/avanteweb/a10/responses/Response.java
/home/saulo-avante/Documentos/Avante/A10API/a10api/src/main/java/br/com/avanteweb/a10/utils/RemoveAcentos.java
/home/saulo-avante/Documentos/Avante/A10API/a10api/src/main/java/br/com/avanteweb/a10/repositories/ClienteRepository.java
/home/saulo-avante/Documentos/Avante/A10API/a10api/src/main/java/br/com/avanteweb/a10/entities/Contrato.java
/home/saulo-avante/Documentos/Avante/A10API/a10api/src/main/java/br/com/avanteweb/a10/repositories/UsuarioRepository.java
/home/saulo-avante/Documentos/Avante/A10API/a10api/src/main/java/br/com/avanteweb/a10/controllers/UpdateContratoController.java
/home/saulo-avante/Documentos/Avante/A10API/a10api/src/main/java/br/com/avanteweb/a10/repositories/ContratoRepository.java
/home/saulo-avante/Documentos/Avante/A10API/a10api/src/main/java/br/com/avanteweb/a10/utils/PasswordUtil.java
/home/saulo-avante/Documentos/Avante/A10API/a10api/src/main/java/br/com/avanteweb/a10/models/gfsis/ContadorModelGfsis.java
/home/saulo-avante/Documentos/Avante/A10API/a10api/src/main/java/br/com/avanteweb/a10/services/ClienteService.java
/home/saulo-avante/Documentos/Avante/A10API/a10api/src/main/java/br/com/avanteweb/a10/exception/services/DataIntegrityException.java
